risc_v_tb_21.vcd
$date
	Fri Mar 21 22:07:24 2025
$end
$version
	Icarus Verilog
$end
$timescale
	1ps
$end
$scope module risc_v_tb $end
$var wire 32 ! CPUOut [31:0] $end
$var reg 1 " CLK $end
$var reg 32 # CPUIn [31:0] $end
$var reg 1 $ Reset $end
$scope module dut $end
$var wire 1 " CLK $end
$var wire 32 % CPUIn [31:0] $end
$var wire 1 $ Reset $end
$var wire 32 & SrcA [31:0] $end
$var wire 32 ' WD3 [31:0] $end
$var wire 1 ( Zero $end
$var wire 32 ) SrcB [31:0] $end
$var wire 2 * ResultSrc [1:0] $end
$var wire 1 + RegWrite $end
$var wire 32 , RD2 [31:0] $end
$var wire 32 - RD1 [31:0] $end
$var wire 32 . RD [31:0] $end
$var wire 32 / PCTarget [31:0] $end
$var wire 2 0 PCSrc [1:0] $end
$var wire 32 1 PCPlus4 [31:0] $end
$var wire 32 2 PC [31:0] $end
$var wire 1 3 Negative $end
$var wire 1 4 MemWrite $end
$var wire 32 5 Instr [31:0] $end
$var wire 3 6 ImmSrc [2:0] $end
$var wire 32 7 ImmExt [31:0] $end
$var wire 32 8 CPUOut [31:0] $end
$var wire 1 9 ALUSrc $end
$var wire 32 : ALUResult [31:0] $end
$var wire 5 ; ALUControl [4:0] $end
$var wire 5 < A3 [4:0] $end
$var wire 5 = A2 [4:0] $end
$var wire 5 > A1 [4:0] $end
$var reg 32 ? Result [31:0] $end
$scope module alu_unit $end
$var wire 32 @ SrcA [31:0] $end
$var wire 32 A SrcB [31:0] $end
$var wire 5 B ALUControl [4:0] $end
$var reg 32 C ALUResult [31:0] $end
$var reg 1 3 Negative $end
$var reg 1 ( Zero $end
$upscope $end
$scope module control_unit_inst $end
$var wire 1 9 ALUSrc $end
$var wire 1 3 Negative $end
$var wire 1 + RegWrite $end
$var wire 1 ( Zero $end
$var wire 7 D opcode [6:0] $end
$var wire 7 E funct7 [6:0] $end
$var wire 3 F funct3 [2:0] $end
$var wire 1 4 MemWrite $end
$var wire 32 G Instr [31:0] $end
$var reg 5 H ALUControl [4:0] $end
$var reg 3 I ImmSrc [2:0] $end
$var reg 2 J PCSrc [1:0] $end
$var reg 2 K ResultSrc [1:0] $end
$upscope $end
$scope module data_mem $end
$var wire 32 L A [31:0] $end
$var wire 1 " CLK $end
$var wire 32 M CPUIn [31:0] $end
$var wire 1 4 WE $end
$var wire 32 N WD [31:0] $end
$var wire 1 O RDsel $end
$var wire 32 P RD [31:0] $end
$var reg 32 Q CPUOut [31:0] $end
$var reg 1 R WEM $end
$var reg 1 S WEOut $end
$upscope $end
$scope module extend_inst $end
$var wire 3 T ImmSrc [2:0] $end
$var wire 32 U Instr [31:0] $end
$var reg 32 V ImmExt [31:0] $end
$upscope $end
$scope module instruction_memory_inst $end
$var wire 32 W Instr [31:0] $end
$var wire 32 X PC_divided_by_4 [31:0] $end
$var wire 32 Y PC [31:0] $end
$upscope $end
$scope module program_counter_inst $end
$var wire 32 Z ALUResult [31:0] $end
$var wire 1 " CLK $end
$var wire 2 [ PCSrc [1:0] $end
$var wire 32 \ PCTarget [31:0] $end
$var wire 1 $ Reset $end
$var wire 32 ] PCPlus4 [31:0] $end
$var reg 32 ^ PC [31:0] $end
$upscope $end
$scope module reg_file_inst $end
$var wire 5 _ A1 [4:0] $end
$var wire 5 ` A2 [4:0] $end
$var wire 5 a A3 [4:0] $end
$var wire 1 " CLK $end
$var wire 32 b WD3 [31:0] $end
$var wire 1 + WE3 $end
$var wire 32 c RD2 [31:0] $end
$var wire 32 d RD1 [31:0] $end
$upscope $end
$upscope $end
$upscope $end
$enddefinitions $end
#0
$dumpvars
b0 d
b0 c
b10000000000000000000000000000000 b
b11111 a
b0 `
b0 _
b0 ^
b100 ]
b10000000000000000000000000000000 \
b0 [
b0 Z
b0 Y
b0 X
b10000000000000000000111110110111 W
b10000000000000000000000000000000 V
b10000000000000000000111110110111 U
b11 T
0S
0R
bx Q
bx P
0O
b0 N
b11111 M
b0 L
b0 K
b0 J
b11 I
b0 H
b10000000000000000000111110110111 G
b0 F
b1000000 E
b110111 D
b0 C
b0 B
b0 A
b0 @
b10000000000000000000000000000000 ?
b0 >
b0 =
b11111 <
b0 ;
b0 :
09
bx 8
b10000000000000000000000000000000 7
b11 6
b10000000000000000000111110110111 5
04
03
b0 2
b100 1
b0 0
b10000000000000000000000000000000 /
bx .
b0 -
b0 ,
1+
b0 *
b0 )
1(
b10000000000000000000000000000000 '
b0 &
b11111 %
1$
b11111 #
0"
bx !
$end
#10000
1"
#20000
0"
0$
#30000
b11111 .
b11111 P
1O
19
b11111111111111111111111111111100 )
b11111111111111111111111111111100 A
03
0(
b1111111111111111111111111111100 :
b1111111111111111111111111111100 C
b1111111111111111111111111111100 L
b1111111111111111111111111111100 Z
1+
bx ,
bx N
bx c
b10000000000000000000000000000000 &
b10000000000000000000000000000000 @
b10000000000000000000000000000000 -
b10000000000000000000000000000000 d
b0 6
b0 I
b0 T
b1 *
b1 K
b110 ;
b110 B
b110 H
b1111111111111111111111111111100 '
b1111111111111111111111111111100 b
b1111111111111111111111111111100 ?
b1111111 E
b10011 D
b11100 =
b11100 `
b11111 >
b11111 _
b11111111111111111111111111111100 7
b11111111111111111111111111111100 V
b1000 1
b1000 ]
b11111111110011111000111110010011 5
b11111111110011111000111110010011 G
b11111111110011111000111110010011 U
b11111111110011111000111110010011 W
b1 X
b0 /
b0 \
b100 2
b100 Y
b100 ^
1"
#40000
0"
#50000
b11111 '
b11111 b
b11111 ?
b0 ,
b0 N
b0 c
b0 )
b0 A
b1111111111111111111111111111100 &
b1111111111111111111111111111100 @
b1111111111111111111111111111100 -
b1111111111111111111111111111100 d
b10 *
b10 K
b0 E
b10 F
b11 D
b101 <
b101 a
b0 =
b0 `
b0 7
b0 V
b1100 1
b1100 ]
b11111010001010000011 5
b11111010001010000011 G
b11111010001010000011 U
b11111010001010000011 W
b10 X
b1000 /
b1000 \
b1000 2
b1000 Y
b1000 ^
1"
#60000
0"
#70000
bx .
bx P
1+
0O
1(
b0 :
b0 C
b0 L
b0 Z
b0 '
b0 b
b0 ?
b0 &
b0 @
b0 -
b0 d
b1 *
b1 K
b0 F
b10011 D
b110 <
b110 a
b0 >
b0 _
b10000 1
b10000 ]
b1100010011 5
b1100010011 G
b1100010011 U
b1100010011 W
b11 X
b1100 /
b1100 \
b1100 2
b1100 Y
b1100 ^
1"
#80000
0"
#90000
b111 <
b111 a
b10100 1
b10100 ]
b1110010011 5
b1110010011 G
b1110010011 U
b1110010011 W
b100 X
b10000 /
b10000 \
b10000 2
b10000 Y
b10000 ^
1"
#100000
0"
#110000
b1 '
b1 b
b1 ?
0(
b1 :
b1 C
b1 L
b1 Z
bx ,
bx N
bx c
b1 )
b1 A
b1001 <
b1001 a
b1 =
b1 `
b1 7
b1 V
b11000 1
b11000 ]
b100000000010010010011 5
b100000000010010010011 G
b100000000010010010011 U
b100000000010010010011 W
b101 X
b10101 /
b10101 \
b10100 2
b10100 Y
b10100 ^
1"
#120000
0"
#130000
b1000 '
b1000 b
b1000 ?
b1000 :
b1000 C
b1000 L
b1000 Z
b1000 )
b1000 A
b1010 <
b1010 a
b1000 =
b1000 `
b1000 7
b1000 V
b11100 1
b11100 ]
b100000000000010100010011 5
b100000000000010100010011 G
b100000000000010100010011 U
b100000000000010100010011 W
b110 X
b100000 /
b100000 \
b11000 2
b11000 Y
b11000 ^
1"
#140000
0"
#150000
09
b1 '
b1 b
b1 ?
b1 :
b1 C
b1 L
b1 Z
b1 ,
b1 N
b1 c
b11111 &
b11111 @
b11111 -
b11111 d
b1 )
b1 A
b11 ;
b11 B
b11 H
b111 F
b110011 D
b1000 <
b1000 a
b1001 =
b1001 `
b101 >
b101 _
b1001 7
b1001 V
b100000 1
b100000 ]
b100100101111010000110011 5
b100100101111010000110011 G
b100100101111010000110011 U
b100100101111010000110011 W
b111 X
b100101 /
b100101 \
b11100 2
b11100 Y
b11100 ^
1"
#160000
0"
#170000
0+
b0 0
b0 J
b0 [
b0 )
b0 A
b1000 '
b1000 b
b1000 ?
0(
b1 :
b1 C
b1 L
b1 Z
b0 ,
b0 N
b0 c
b1 &
b1 @
b1 -
b1 d
b10 6
b10 I
b10 T
b0 *
b0 K
b1010 ;
b1010 B
b1010 H
b0 F
b1100011 D
b0 =
b0 `
b1000 >
b1000 _
b1000 7
b1000 V
b100100 1
b100100 ]
b1000000010001100011 5
b1000000010001100011 G
b1000000010001100011 U
b1000000010001100011 W
b1000 X
b101000 /
b101000 \
b100000 2
b100000 Y
b100000 ^
1"
#180000
0"
#190000
1+
b1 )
b1 A
0(
b1 :
b1 C
b1 L
b1 Z
b1 ,
b1 N
b1 c
b0 &
b0 @
b0 -
b0 d
b0 6
b0 I
b0 T
b1 *
b1 K
b110 ;
b110 B
b110 H
b1 '
b1 b
b1 ?
b110011 D
b110 <
b110 a
b1001 =
b1001 `
b110 >
b110 _
b1001 7
b1001 V
b101000 1
b101000 ]
b100100110000001100110011 5
b100100110000001100110011 G
b100100110000001100110011 U
b100100110000001100110011 W
b1001 X
b101101 /
b101101 \
b100100 2
b100100 Y
b100100 ^
1"
#200000
0"
#210000
0O
19
03
0(
b1111 '
b1111 b
b1111 ?
b1 )
b1 A
b1111 :
b1111 C
b1111 L
b1111 Z
bx ,
bx N
bx c
b11111 &
b11111 @
b11111 -
b11111 d
b10000 ;
b10000 B
b10000 H
b101 F
b10011 D
b101 <
b101 a
b1 =
b1 `
b101 >
b101 _
b1 7
b1 V
b101100 1
b101100 ]
b100101101001010010011 5
b100101101001010010011 G
b100101101001010010011 U
b100101101001010010011 W
b1010 X
b101001 /
b101001 \
b101000 2
b101000 Y
b101000 ^
1"
#220000
0"
#230000
09
b1 '
b1 b
b1 ?
b1 :
b1 C
b1 L
b1 Z
b1 ,
b1 N
b1 c
b1 )
b1 A
b0 &
b0 @
b0 -
b0 d
b110 ;
b110 B
b110 H
b0 F
b110011 D
b111 <
b111 a
b1001 =
b1001 `
b111 >
b111 _
b1001 7
b1001 V
b110000 1
b110000 ]
b100100111000001110110011 5
b100100111000001110110011 G
b100100111000001110110011 U
b100100111000001110110011 W
b1011 X
b110101 /
b110101 \
b101100 2
b101100 Y
b101100 ^
1"
#240000
0"
#250000
0+
b11111111111111111111111111101100 '
b11111111111111111111111111101100 b
b11111111111111111111111111101100 ?
b111 :
b111 C
b111 L
b111 Z
b1000 &
b1000 @
b1000 -
b1000 d
b10 6
b10 I
b10 T
b1 0
b1 J
b1 [
b0 *
b0 K
b1010 ;
b1010 B
b1010 H
b1111111 E
b1 F
b1100011 D
b1101 <
b1101 a
b111 =
b111 `
b1010 >
b1010 _
b11111111111111111111111111101100 7
b11111111111111111111111111101100 V
b110100 1
b110100 ]
b11111110011101010001011011100011 5
b11111110011101010001011011100011 G
b11111110011101010001011011100011 U
b11111110011101010001011011100011 W
b1100 X
b11100 /
b11100 \
b110000 2
b110000 Y
b110000 ^
1"
#260000
0"
#270000
1+
b1 :
b1 C
b1 L
b1 Z
b1111 &
b1111 @
b1111 -
b1111 d
b0 6
b0 I
b0 T
b0 0
b0 J
b0 [
b1 *
b1 K
b11 ;
b11 B
b11 H
b1 '
b1 b
b1 ?
b0 E
b111 F
b110011 D
b1000 <
b1000 a
b1001 =
b1001 `
b101 >
b101 _
b1001 7
b1001 V
b100000 1
b100000 ]
b100100101111010000110011 5
b100100101111010000110011 G
b100100101111010000110011 U
b100100101111010000110011 W
b111 X
b100101 /
b100101 \
b11100 2
b11100 Y
b11100 ^
1"
#280000
0"
#290000
0+
b0 0
b0 J
b0 [
b0 )
b0 A
b1000 '
b1000 b
b1000 ?
0(
b1 :
b1 C
b1 L
b1 Z
b0 ,
b0 N
b0 c
b1 &
b1 @
b1 -
b1 d
b10 6
b10 I
b10 T
b0 *
b0 K
b1010 ;
b1010 B
b1010 H
b0 F
b1100011 D
b0 =
b0 `
b1000 >
b1000 _
b1000 7
b1000 V
b100100 1
b100100 ]
b1000000010001100011 5
b1000000010001100011 G
b1000000010001100011 U
b1000000010001100011 W
b1000 X
b101000 /
b101000 \
b100000 2
b100000 Y
b100000 ^
1"
#300000
0"
#310000
1+
b10 :
b10 C
b10 L
b10 Z
b1 )
b1 A
b1 ,
b1 N
b1 c
b0 6
b0 I
b0 T
b1 *
b1 K
b110 ;
b110 B
b110 H
b10 '
b10 b
b10 ?
b110011 D
b110 <
b110 a
b1001 =
b1001 `
b110 >
b110 _
b1001 7
b1001 V
b101000 1
b101000 ]
b100100110000001100110011 5
b100100110000001100110011 G
b100100110000001100110011 U
b100100110000001100110011 W
b1001 X
b101101 /
b101101 \
b100100 2
b100100 Y
b100100 ^
1"
#320000
0"
#330000
0O
19
03
0(
b111 '
b111 b
b111 ?
b1 )
b1 A
b111 :
b111 C
b111 L
b111 Z
bx ,
bx N
bx c
b1111 &
b1111 @
b1111 -
b1111 d
b10000 ;
b10000 B
b10000 H
b101 F
b10011 D
b101 <
b101 a
b1 =
b1 `
b101 >
b101 _
b1 7
b1 V
b101100 1
b101100 ]
b100101101001010010011 5
b100101101001010010011 G
b100101101001010010011 U
b100101101001010010011 W
b1010 X
b101001 /
b101001 \
b101000 2
b101000 Y
b101000 ^
1"
#340000
0"
#350000
09
b10 '
b10 b
b10 ?
b10 :
b10 C
b10 L
b10 Z
b1 ,
b1 N
b1 c
b1 )
b1 A
b1 &
b1 @
b1 -
b1 d
b110 ;
b110 B
b110 H
b0 F
b110011 D
b111 <
b111 a
b1001 =
b1001 `
b111 >
b111 _
b1001 7
b1001 V
b110000 1
b110000 ]
b100100111000001110110011 5
b100100111000001110110011 G
b100100111000001110110011 U
b100100111000001110110011 W
b1011 X
b110101 /
b110101 \
b101100 2
b101100 Y
b101100 ^
1"
#360000
0"
#370000
0+
b10 )
b10 A
b11111111111111111111111111101100 '
b11111111111111111111111111101100 b
b11111111111111111111111111101100 ?
b110 :
b110 C
b110 L
b110 Z
b10 ,
b10 N
b10 c
b1000 &
b1000 @
b1000 -
b1000 d
b10 6
b10 I
b10 T
b1 0
b1 J
b1 [
b0 *
b0 K
b1010 ;
b1010 B
b1010 H
b1111111 E
b1 F
b1100011 D
b1101 <
b1101 a
b111 =
b111 `
b1010 >
b1010 _
b11111111111111111111111111101100 7
b11111111111111111111111111101100 V
b110100 1
b110100 ]
b11111110011101010001011011100011 5
b11111110011101010001011011100011 G
b11111110011101010001011011100011 U
b11111110011101010001011011100011 W
b1100 X
b11100 /
b11100 \
b110000 2
b110000 Y
b110000 ^
1"
#380000
0"
#390000
1+
b1 )
b1 A
b1 :
b1 C
b1 L
b1 Z
b1 ,
b1 N
b1 c
b111 &
b111 @
b111 -
b111 d
b0 6
b0 I
b0 T
b0 0
b0 J
b0 [
b1 *
b1 K
b11 ;
b11 B
b11 H
b1 '
b1 b
b1 ?
b0 E
b111 F
b110011 D
b1000 <
b1000 a
b1001 =
b1001 `
b101 >
b101 _
b1001 7
b1001 V
b100000 1
b100000 ]
b100100101111010000110011 5
b100100101111010000110011 G
b100100101111010000110011 U
b100100101111010000110011 W
b111 X
b100101 /
b100101 \
b11100 2
b11100 Y
b11100 ^
1"
#400000
0"
#410000
0+
b0 0
b0 J
b0 [
b0 )
b0 A
b1000 '
b1000 b
b1000 ?
0(
b1 :
b1 C
b1 L
b1 Z
b0 ,
b0 N
b0 c
b1 &
b1 @
b1 -
b1 d
b10 6
b10 I
b10 T
b0 *
b0 K
b1010 ;
b1010 B
b1010 H
b0 F
b1100011 D
b0 =
b0 `
b1000 >
b1000 _
b1000 7
b1000 V
b100100 1
b100100 ]
b1000000010001100011 5
b1000000010001100011 G
b1000000010001100011 U
b1000000010001100011 W
b1000 X
b101000 /
b101000 \
b100000 2
b100000 Y
b100000 ^
1"
#420000
0"
#430000
1+
b1 )
b1 A
b11 :
b11 C
b11 L
b11 Z
b1 ,
b1 N
b1 c
b10 &
b10 @
b10 -
b10 d
b0 6
b0 I
b0 T
b1 *
b1 K
b110 ;
b110 B
b110 H
b11 '
b11 b
b11 ?
b110011 D
b110 <
b110 a
b1001 =
b1001 `
b110 >
b110 _
b1001 7
b1001 V
b101000 1
b101000 ]
b100100110000001100110011 5
b100100110000001100110011 G
b100100110000001100110011 U
b100100110000001100110011 W
b1001 X
b101101 /
b101101 \
b100100 2
b100100 Y
b100100 ^
1"
#440000
0"
#450000
0O
b11 '
b11 b
b11 ?
19
03
0(
b11 :
b11 C
b11 L
b11 Z
b1 )
b1 A
bx ,
bx N
bx c
b111 &
b111 @
b111 -
b111 d
b10000 ;
b10000 B
b10000 H
b101 F
b10011 D
b101 <
b101 a
b1 =
b1 `
b101 >
b101 _
b1 7
b1 V
b101100 1
b101100 ]
b100101101001010010011 5
b100101101001010010011 G
b100101101001010010011 U
b100101101001010010011 W
b1010 X
b101001 /
b101001 \
b101000 2
b101000 Y
b101000 ^
1"
#460000
0"
#470000
09
b11 '
b11 b
b11 ?
b11 :
b11 C
b11 L
b11 Z
b1 ,
b1 N
b1 c
b1 )
b1 A
b10 &
b10 @
b10 -
b10 d
b110 ;
b110 B
b110 H
b0 F
b110011 D
b111 <
b111 a
b1001 =
b1001 `
b111 >
b111 _
b1001 7
b1001 V
b110000 1
b110000 ]
b100100111000001110110011 5
b100100111000001110110011 G
b100100111000001110110011 U
b100100111000001110110011 W
b1011 X
b110101 /
b110101 \
b101100 2
b101100 Y
b101100 ^
1"
#480000
0"
#490000
0+
b11 )
b11 A
b11111111111111111111111111101100 '
b11111111111111111111111111101100 b
b11111111111111111111111111101100 ?
b101 :
b101 C
b101 L
b101 Z
b11 ,
b11 N
b11 c
b1000 &
b1000 @
b1000 -
b1000 d
b10 6
b10 I
b10 T
b1 0
b1 J
b1 [
b0 *
b0 K
b1010 ;
b1010 B
b1010 H
b1111111 E
b1 F
b1100011 D
b1101 <
b1101 a
b111 =
b111 `
b1010 >
b1010 _
b11111111111111111111111111101100 7
b11111111111111111111111111101100 V
b110100 1
b110100 ]
b11111110011101010001011011100011 5
b11111110011101010001011011100011 G
b11111110011101010001011011100011 U
b11111110011101010001011011100011 W
b1100 X
b11100 /
b11100 \
b110000 2
b110000 Y
b110000 ^
1"
#500000
0"
#510000
1+
b1 )
b1 A
b1 :
b1 C
b1 L
b1 Z
b1 ,
b1 N
b1 c
b11 &
b11 @
b11 -
b11 d
b0 6
b0 I
b0 T
b0 0
b0 J
b0 [
b1 *
b1 K
b11 ;
b11 B
b11 H
b1 '
b1 b
b1 ?
b0 E
b111 F
b110011 D
b1000 <
b1000 a
b1001 =
b1001 `
b101 >
b101 _
b1001 7
b1001 V
b100000 1
b100000 ]
b100100101111010000110011 5
b100100101111010000110011 G
b100100101111010000110011 U
b100100101111010000110011 W
b111 X
b100101 /
b100101 \
b11100 2
b11100 Y
b11100 ^
1"
#520000
0"
#530000
0+
b0 0
b0 J
b0 [
b0 )
b0 A
b1000 '
b1000 b
b1000 ?
0(
b1 :
b1 C
b1 L
b1 Z
b0 ,
b0 N
b0 c
b1 &
b1 @
b1 -
b1 d
b10 6
b10 I
b10 T
b0 *
b0 K
b1010 ;
b1010 B
b1010 H
b0 F
b1100011 D
b0 =
b0 `
b1000 >
b1000 _
b1000 7
b1000 V
b100100 1
b100100 ]
b1000000010001100011 5
b1000000010001100011 G
b1000000010001100011 U
b1000000010001100011 W
b1000 X
b101000 /
b101000 \
b100000 2
b100000 Y
b100000 ^
1"
#540000
0"
#550000
1+
b1 )
b1 A
b100 :
b100 C
b100 L
b100 Z
b1 ,
b1 N
b1 c
b11 &
b11 @
b11 -
b11 d
b0 6
b0 I
b0 T
b1 *
b1 K
b110 ;
b110 B
b110 H
b100 '
b100 b
b100 ?
b110011 D
b110 <
b110 a
b1001 =
b1001 `
b110 >
b110 _
b1001 7
b1001 V
b101000 1
b101000 ]
b100100110000001100110011 5
b100100110000001100110011 G
b100100110000001100110011 U
b100100110000001100110011 W
b1001 X
b101101 /
b101101 \
b100100 2
b100100 Y
b100100 ^
1"
#560000
0"
#570000
0O
19
03
0(
b1 '
b1 b
b1 ?
b1 )
b1 A
b1 :
b1 C
b1 L
b1 Z
bx ,
bx N
bx c
b10000 ;
b10000 B
b10000 H
b101 F
b10011 D
b101 <
b101 a
b1 =
b1 `
b101 >
b101 _
b1 7
b1 V
b101100 1
b101100 ]
b100101101001010010011 5
b100101101001010010011 G
b100101101001010010011 U
b100101101001010010011 W
b1010 X
b101001 /
b101001 \
b101000 2
b101000 Y
b101000 ^
1"
#580000
0"
#590000
09
b100 '
b100 b
b100 ?
b100 :
b100 C
b100 L
b100 Z
b1 ,
b1 N
b1 c
b1 )
b1 A
b110 ;
b110 B
b110 H
b0 F
b110011 D
b111 <
b111 a
b1001 =
b1001 `
b111 >
b111 _
b1001 7
b1001 V
b110000 1
b110000 ]
b100100111000001110110011 5
b100100111000001110110011 G
b100100111000001110110011 U
b100100111000001110110011 W
b1011 X
b110101 /
b110101 \
b101100 2
b101100 Y
b101100 ^
1"
#600000
0"
#610000
0+
b100 )
b100 A
b11111111111111111111111111101100 '
b11111111111111111111111111101100 b
b11111111111111111111111111101100 ?
b100 :
b100 C
b100 L
b100 Z
b100 ,
b100 N
b100 c
b1000 &
b1000 @
b1000 -
b1000 d
b10 6
b10 I
b10 T
b1 0
b1 J
b1 [
b0 *
b0 K
b1010 ;
b1010 B
b1010 H
b1111111 E
b1 F
b1100011 D
b1101 <
b1101 a
b111 =
b111 `
b1010 >
b1010 _
b11111111111111111111111111101100 7
b11111111111111111111111111101100 V
b110100 1
b110100 ]
b11111110011101010001011011100011 5
b11111110011101010001011011100011 G
b11111110011101010001011011100011 U
b11111110011101010001011011100011 W
b1100 X
b11100 /
b11100 \
b110000 2
b110000 Y
b110000 ^
1"
#620000
0"
#630000
1+
b1 )
b1 A
0(
b1 :
b1 C
b1 L
b1 Z
b1 ,
b1 N
b1 c
b1 &
b1 @
b1 -
b1 d
b0 6
b0 I
b0 T
b0 0
b0 J
b0 [
b1 *
b1 K
b11 ;
b11 B
b11 H
b1 '
b1 b
b1 ?
b0 E
b111 F
b110011 D
b1000 <
b1000 a
b1001 =
b1001 `
b101 >
b101 _
b1001 7
b1001 V
b100000 1
b100000 ]
b100100101111010000110011 5
b100100101111010000110011 G
b100100101111010000110011 U
b100100101111010000110011 W
b111 X
b100101 /
b100101 \
b11100 2
b11100 Y
b11100 ^
1"
#640000
0"
#650000
0+
b0 0
b0 J
b0 [
b0 )
b0 A
b1000 '
b1000 b
b1000 ?
0(
b1 :
b1 C
b1 L
b1 Z
b0 ,
b0 N
b0 c
b10 6
b10 I
b10 T
b0 *
b0 K
b1010 ;
b1010 B
b1010 H
b0 F
b1100011 D
b0 =
b0 `
b1000 >
b1000 _
b1000 7
b1000 V
b100100 1
b100100 ]
b1000000010001100011 5
b1000000010001100011 G
b1000000010001100011 U
b1000000010001100011 W
b1000 X
b101000 /
b101000 \
b100000 2
b100000 Y
b100000 ^
1"
#660000
0"
#670000
1+
b1 )
b1 A
b101 :
b101 C
b101 L
b101 Z
b1 ,
b1 N
b1 c
b100 &
b100 @
b100 -
b100 d
b0 6
b0 I
b0 T
b1 *
b1 K
b110 ;
b110 B
b110 H
b101 '
b101 b
b101 ?
b110011 D
b110 <
b110 a
b1001 =
b1001 `
b110 >
b110 _
b1001 7
b1001 V
b101000 1
b101000 ]
b100100110000001100110011 5
b100100110000001100110011 G
b100100110000001100110011 U
b100100110000001100110011 W
b1001 X
b101101 /
b101101 \
b100100 2
b100100 Y
b100100 ^
1"
#680000
0"
#690000
0O
19
03
b0 '
b0 b
b0 ?
b1 )
b1 A
1(
b0 :
b0 C
b0 L
b0 Z
bx ,
bx N
bx c
b1 &
b1 @
b1 -
b1 d
b10000 ;
b10000 B
b10000 H
b101 F
b10011 D
b101 <
b101 a
b1 =
b1 `
b101 >
b101 _
b1 7
b1 V
b101100 1
b101100 ]
b100101101001010010011 5
b100101101001010010011 G
b100101101001010010011 U
b100101101001010010011 W
b1010 X
b101001 /
b101001 \
b101000 2
b101000 Y
b101000 ^
1"
#700000
0"
#710000
09
b101 '
b101 b
b101 ?
0(
b101 :
b101 C
b101 L
b101 Z
b1 ,
b1 N
b1 c
b1 )
b1 A
b100 &
b100 @
b100 -
b100 d
b110 ;
b110 B
b110 H
b0 F
b110011 D
b111 <
b111 a
b1001 =
b1001 `
b111 >
b111 _
b1001 7
b1001 V
b110000 1
b110000 ]
b100100111000001110110011 5
b100100111000001110110011 G
b100100111000001110110011 U
b100100111000001110110011 W
b1011 X
b110101 /
b110101 \
b101100 2
b101100 Y
b101100 ^
1"
#720000
0"
#730000
0+
b101 )
b101 A
b11111111111111111111111111101100 '
b11111111111111111111111111101100 b
b11111111111111111111111111101100 ?
b11 :
b11 C
b11 L
b11 Z
b101 ,
b101 N
b101 c
b1000 &
b1000 @
b1000 -
b1000 d
b10 6
b10 I
b10 T
b1 0
b1 J
b1 [
b0 *
b0 K
b1010 ;
b1010 B
b1010 H
b1111111 E
b1 F
b1100011 D
b1101 <
b1101 a
b111 =
b111 `
b1010 >
b1010 _
b11111111111111111111111111101100 7
b11111111111111111111111111101100 V
b110100 1
b110100 ]
b11111110011101010001011011100011 5
b11111110011101010001011011100011 G
b11111110011101010001011011100011 U
b11111110011101010001011011100011 W
b1100 X
b11100 /
b11100 \
b110000 2
b110000 Y
b110000 ^
1"
#740000
0"
#750000
1+
b1 )
b1 A
1(
b0 :
b0 C
b0 L
b0 Z
b1 ,
b1 N
b1 c
b0 &
b0 @
b0 -
b0 d
b0 6
b0 I
b0 T
b0 0
b0 J
b0 [
b1 *
b1 K
b11 ;
b11 B
b11 H
b0 '
b0 b
b0 ?
b0 E
b111 F
b110011 D
b1000 <
b1000 a
b1001 =
b1001 `
b101 >
b101 _
b1001 7
b1001 V
b100000 1
b100000 ]
b100100101111010000110011 5
b100100101111010000110011 G
b100100101111010000110011 U
b100100101111010000110011 W
b111 X
b100101 /
b100101 \
b11100 2
b11100 Y
b11100 ^
1"
#760000
0"
#770000
0+
b1000 '
b1000 b
b1000 ?
b0 )
b0 A
03
1(
b0 :
b0 C
b0 L
b0 Z
b0 ,
b0 N
b0 c
b10 6
b10 I
b10 T
b1 0
b1 J
b1 [
b0 *
b0 K
b1010 ;
b1010 B
b1010 H
b0 F
b1100011 D
b0 =
b0 `
b1000 >
b1000 _
b1000 7
b1000 V
b100100 1
b100100 ]
b1000000010001100011 5
b1000000010001100011 G
b1000000010001100011 U
b1000000010001100011 W
b1000 X
b101000 /
b101000 \
b100000 2
b100000 Y
b100000 ^
1"
#780000
0"
#790000
1+
0O
19
03
1(
b0 :
b0 C
b0 L
b0 Z
b1 )
b1 A
bx ,
bx N
bx c
b0 6
b0 I
b0 T
b0 0
b0 J
b0 [
b1 *
b1 K
b10000 ;
b10000 B
b10000 H
b0 '
b0 b
b0 ?
b101 F
b10011 D
b101 <
b101 a
b1 =
b1 `
b101 >
b101 _
b1 7
b1 V
b101100 1
b101100 ]
b100101101001010010011 5
b100101101001010010011 G
b100101101001010010011 U
b100101101001010010011 W
b1010 X
b101001 /
b101001 \
b101000 2
b101000 Y
b101000 ^
1"
#800000
0"
#810000
09
b110 '
b110 b
b110 ?
0(
b110 :
b110 C
b110 L
b110 Z
b1 ,
b1 N
b1 c
b101 &
b101 @
b101 -
b101 d
b1 )
b1 A
b110 ;
b110 B
b110 H
b0 F
b110011 D
b111 <
b111 a
b1001 =
b1001 `
b111 >
b111 _
b1001 7
b1001 V
b110000 1
b110000 ]
b100100111000001110110011 5
b100100111000001110110011 G
b100100111000001110110011 U
b100100111000001110110011 W
b1011 X
b110101 /
b110101 \
b101100 2
b101100 Y
b101100 ^
1"
#820000
0"
#830000
0+
b110 )
b110 A
b11111111111111111111111111101100 '
b11111111111111111111111111101100 b
b11111111111111111111111111101100 ?
b10 :
b10 C
b10 L
b10 Z
b110 ,
b110 N
b110 c
b1000 &
b1000 @
b1000 -
b1000 d
b10 6
b10 I
b10 T
b1 0
b1 J
b1 [
b0 *
b0 K
b1010 ;
b1010 B
b1010 H
b1111111 E
b1 F
b1100011 D
b1101 <
b1101 a
b111 =
b111 `
b1010 >
b1010 _
b11111111111111111111111111101100 7
b11111111111111111111111111101100 V
b110100 1
b110100 ]
b11111110011101010001011011100011 5
b11111110011101010001011011100011 G
b11111110011101010001011011100011 U
b11111110011101010001011011100011 W
b1100 X
b11100 /
b11100 \
b110000 2
b110000 Y
b110000 ^
1"
#840000
0"
#850000
1+
b1 )
b1 A
1(
b0 :
b0 C
b0 L
b0 Z
b1 ,
b1 N
b1 c
b0 &
b0 @
b0 -
b0 d
b0 6
b0 I
b0 T
b0 0
b0 J
b0 [
b1 *
b1 K
b11 ;
b11 B
b11 H
b0 '
b0 b
b0 ?
b0 E
b111 F
b110011 D
b1000 <
b1000 a
b1001 =
b1001 `
b101 >
b101 _
b1001 7
b1001 V
b100000 1
b100000 ]
b100100101111010000110011 5
b100100101111010000110011 G
b100100101111010000110011 U
b100100101111010000110011 W
b111 X
b100101 /
b100101 \
b11100 2
b11100 Y
b11100 ^
1"
#860000
0"
#870000
0+
b1000 '
b1000 b
b1000 ?
b0 )
b0 A
03
1(
b0 :
b0 C
b0 L
b0 Z
b0 ,
b0 N
b0 c
b10 6
b10 I
b10 T
b1 0
b1 J
b1 [
b0 *
b0 K
b1010 ;
b1010 B
b1010 H
b0 F
b1100011 D
b0 =
b0 `
b1000 >
b1000 _
b1000 7
b1000 V
b100100 1
b100100 ]
b1000000010001100011 5
b1000000010001100011 G
b1000000010001100011 U
b1000000010001100011 W
b1000 X
b101000 /
b101000 \
b100000 2
b100000 Y
b100000 ^
1"
#880000
0"
