risc_v_tb.vcd
$date
	Mon Mar 24 01:13:56 2025
$end
$version
	Icarus Verilog
$end
$timescale
	1ps
$end
$scope module risc_v_tb $end
$var wire 32 ! CPUOut [31:0] $end
$var reg 1 " CLK $end
$var reg 32 # CPUIn [31:0] $end
$var reg 1 $ Reset $end
$scope module dut $end
$var wire 1 " CLK $end
$var wire 32 % CPUIn [31:0] $end
$var wire 1 $ Reset $end
$var wire 32 & SrcA [31:0] $end
$var wire 32 ' WD3 [31:0] $end
$var wire 1 ( Zero $end
$var wire 32 ) SrcB [31:0] $end
$var wire 2 * ResultSrc [1:0] $end
$var wire 1 + RegWrite $end
$var wire 32 , RD2 [31:0] $end
$var wire 32 - RD1 [31:0] $end
$var wire 32 . RD [31:0] $end
$var wire 32 / PCTarget [31:0] $end
$var wire 2 0 PCSrc [1:0] $end
$var wire 32 1 PCPlus4 [31:0] $end
$var wire 32 2 PC [31:0] $end
$var wire 1 3 Negative $end
$var wire 1 4 MemWrite $end
$var wire 32 5 Instr [31:0] $end
$var wire 3 6 ImmSrc [2:0] $end
$var wire 32 7 ImmExt [31:0] $end
$var wire 32 8 CPUOut [31:0] $end
$var wire 1 9 ALUSrc $end
$var wire 32 : ALUResult [31:0] $end
$var wire 5 ; ALUControl [4:0] $end
$var wire 5 < A3 [4:0] $end
$var wire 5 = A2 [4:0] $end
$var wire 5 > A1 [4:0] $end
$var reg 32 ? Result [31:0] $end
$scope module alu_unit $end
$var wire 32 @ SrcA [31:0] $end
$var wire 32 A SrcB [31:0] $end
$var wire 5 B ALUControl [4:0] $end
$var reg 32 C ALUResult [31:0] $end
$var reg 1 3 Negative $end
$var reg 1 ( Zero $end
$upscope $end
$scope module control_unit_inst $end
$var wire 1 9 ALUSrc $end
$var wire 1 3 Negative $end
$var wire 1 + RegWrite $end
$var wire 1 ( Zero $end
$var wire 7 D opcode [6:0] $end
$var wire 7 E funct7 [6:0] $end
$var wire 3 F funct3 [2:0] $end
$var wire 1 4 MemWrite $end
$var wire 32 G Instr [31:0] $end
$var reg 5 H ALUControl [4:0] $end
$var reg 3 I ImmSrc [2:0] $end
$var reg 2 J PCSrc [1:0] $end
$var reg 2 K ResultSrc [1:0] $end
$upscope $end
$scope module data_mem $end
$var wire 32 L A [31:0] $end
$var wire 1 " CLK $end
$var wire 32 M CPUIn [31:0] $end
$var wire 1 4 WE $end
$var wire 32 N WD [31:0] $end
$var wire 1 O RDsel $end
$var wire 32 P RD [31:0] $end
$var reg 32 Q CPUOut [31:0] $end
$var reg 1 R WEM $end
$var reg 1 S WEOut $end
$upscope $end
$scope module extend_inst $end
$var wire 3 T ImmSrc [2:0] $end
$var wire 32 U Instr [31:0] $end
$var reg 32 V ImmExt [31:0] $end
$upscope $end
$scope module instruction_memory_inst $end
$var wire 32 W Instr [31:0] $end
$var wire 32 X PC_divided_by_4 [31:0] $end
$var wire 32 Y PC [31:0] $end
$upscope $end
$scope module program_counter_inst $end
$var wire 32 Z ALUResult [31:0] $end
$var wire 1 " CLK $end
$var wire 2 [ PCSrc [1:0] $end
$var wire 32 \ PCTarget [31:0] $end
$var wire 1 $ Reset $end
$var wire 32 ] PCPlus4 [31:0] $end
$var reg 32 ^ PC [31:0] $end
$upscope $end
$scope module reg_file_inst $end
$var wire 5 _ A1 [4:0] $end
$var wire 5 ` A2 [4:0] $end
$var wire 5 a A3 [4:0] $end
$var wire 1 " CLK $end
$var wire 32 b WD3 [31:0] $end
$var wire 1 + WE3 $end
$var wire 32 c RD2 [31:0] $end
$var wire 32 d RD1 [31:0] $end
$upscope $end
$upscope $end
$upscope $end
$enddefinitions $end
#0
$dumpvars
b0 d
b0 c
b10000000000000000000000000000000 b
b11111 a
b0 `
b0 _
b0 ^
b100 ]
b10000000000000000000000000000000 \
b0 [
b0 Z
b0 Y
b0 X
b10000000000000000000111110110111 W
b10000000000000000000000000000000 V
b10000000000000000000111110110111 U
b11 T
0S
0R
bx Q
bx P
0O
b0 N
b0 M
b0 L
b0 K
b0 J
b11 I
b0 H
b10000000000000000000111110110111 G
b0 F
b1000000 E
b110111 D
b0 C
b0 B
b0 A
b0 @
b10000000000000000000000000000000 ?
b0 >
b0 =
b11111 <
b0 ;
b0 :
09
bx 8
b10000000000000000000000000000000 7
b11 6
b10000000000000000000111110110111 5
04
03
b0 2
b100 1
b0 0
b10000000000000000000000000000000 /
bx .
b0 -
b0 ,
1+
b0 *
b0 )
1(
b10000000000000000000000000000000 '
b0 &
b0 %
1$
b0 #
0"
bx !
$end
#10000
1"
#20000
0"
0$
#30000
b0 .
b0 P
1O
19
b11111111111111111111111111111100 )
b11111111111111111111111111111100 A
03
0(
b1111111111111111111111111111100 :
b1111111111111111111111111111100 C
b1111111111111111111111111111100 L
b1111111111111111111111111111100 Z
1+
bx ,
bx N
bx c
b10000000000000000000000000000000 &
b10000000000000000000000000000000 @
b10000000000000000000000000000000 -
b10000000000000000000000000000000 d
b0 6
b0 I
b0 T
b1 *
b1 K
b110 ;
b110 B
b110 H
b1111111111111111111111111111100 '
b1111111111111111111111111111100 b
b1111111111111111111111111111100 ?
b1111111 E
b10011 D
b11100 =
b11100 `
b11111 >
b11111 _
b11111111111111111111111111111100 7
b11111111111111111111111111111100 V
b1000 1
b1000 ]
b11111111110011111000111110010011 5
b11111111110011111000111110010011 G
b11111111110011111000111110010011 U
b11111111110011111000111110010011 W
b1 X
b0 /
b0 \
b100 2
b100 Y
b100 ^
1"
#40000
0"
#50000
bx .
bx P
0O
b11111111111111111111100000000000 '
b11111111111111111111100000000000 b
b11111111111111111111100000000000 ?
13
b11111111111111111111100000000000 :
b11111111111111111111100000000000 C
b11111111111111111111100000000000 L
b11111111111111111111100000000000 Z
b0 ,
b0 N
b0 c
b11111111111111111111100000000000 )
b11111111111111111111100000000000 A
b0 &
b0 @
b0 -
b0 d
b1000000 E
b1 <
b1 a
b0 =
b0 `
b0 >
b0 _
b11111111111111111111100000000000 7
b11111111111111111111100000000000 V
b1100 1
b1100 ]
b10000000000000000000000010010011 5
b10000000000000000000000010010011 G
b10000000000000000000000010010011 U
b10000000000000000000000010010011 W
b10 X
b11111111111111111111100000001000 /
b11111111111111111111100000001000 \
b1000 2
b1000 Y
b1000 ^
1"
#60000
0"
#70000
b0 .
b0 P
1O
0+
1S
03
b1111111111111111111111111111100 :
b1111111111111111111111111111100 C
b1111111111111111111111111111100 L
b1111111111111111111111111111100 Z
b0 '
b0 b
b0 ?
b11111111111111111111100000000000 ,
b11111111111111111111100000000000 N
b11111111111111111111100000000000 c
b1111111111111111111111111111100 &
b1111111111111111111111111111100 @
b1111111111111111111111111111100 -
b1111111111111111111111111111100 d
b0 )
b0 A
b1 6
b1 I
b1 T
b0 *
b0 K
0R
b0 E
b10 F
14
b100011 D
b0 <
b0 a
b1 =
b1 `
b11111 >
b11111 _
b0 7
b0 V
b10000 1
b10000 ]
b111111010000000100011 5
b111111010000000100011 G
b111111010000000100011 U
b111111010000000100011 W
b11 X
b1100 /
b1100 \
b1100 2
b1100 Y
b1100 ^
1"
#80000
0"
#90000
1+
bx .
bx P
03
0O
19
b1 :
b1 C
b1 L
b1 Z
b0 &
b0 @
b0 -
b0 d
b1 )
b1 A
b0 6
b0 I
b0 T
b1 *
b1 K
0S
b1 '
b1 b
b1 ?
b0 F
04
b10011 D
b1 <
b1 a
b0 >
b0 _
b1 7
b1 V
b11111111111111111111100000000000 !
b11111111111111111111100000000000 8
b11111111111111111111100000000000 Q
b10100 1
b10100 ]
b100000000000010010011 5
b100000000000010010011 G
b100000000000010010011 U
b100000000000010010011 W
b100 X
b10001 /
b10001 \
b10000 2
b10000 Y
b10000 ^
1"
#100000
0"
#110000
b11 '
b11 b
b11 ?
b11 :
b11 C
b11 L
b11 Z
b11 )
b11 A
bx ,
bx N
bx c
b10 <
b10 a
b11 =
b11 `
b11 7
b11 V
b11000 1
b11000 ]
b1100000000000100010011 5
b1100000000000100010011 G
b1100000000000100010011 U
b1100000000000100010011 W
b101 X
b10111 /
b10111 \
b10100 2
b10100 Y
b10100 ^
1"
#120000
0"
#130000
b100 '
b100 b
b100 ?
b100 :
b100 C
b100 L
b100 Z
09
b11 ,
b11 N
b11 c
b1 &
b1 @
b1 -
b1 d
b11 )
b11 A
b110011 D
b11 <
b11 a
b10 =
b10 `
b1 >
b1 _
b10 7
b10 V
b11100 1
b11100 ]
b1000001000000110110011 5
b1000001000000110110011 G
b1000001000000110110011 U
b1000001000000110110011 W
b110 X
b11010 /
b11010 \
b11000 2
b11000 Y
b11000 ^
1"
#140000
0"
#150000
b0 .
b0 P
1O
1S
0+
03
19
b0 )
b0 A
b1111111111111111111111111111100 :
b1111111111111111111111111111100 C
b1111111111111111111111111111100 L
b1111111111111111111111111111100 Z
b0 '
b0 b
b0 ?
b100 ,
b100 N
b100 c
b1111111111111111111111111111100 &
b1111111111111111111111111111100 @
b1111111111111111111111111111100 -
b1111111111111111111111111111100 d
b1 6
b1 I
b1 T
b0 *
b0 K
0R
b10 F
14
b100011 D
b0 <
b0 a
b11 =
b11 `
b11111 >
b11111 _
b0 7
b0 V
b100000 1
b100000 ]
b1111111010000000100011 5
b1111111010000000100011 G
b1111111010000000100011 U
b1111111010000000100011 W
b111 X
b11100 /
b11100 \
b11100 2
b11100 Y
b11100 ^
1"
#160000
0"
#170000
1+
bx .
bx P
0O
09
13
b11111111111111111111111111111110 :
b11111111111111111111111111111110 C
b11111111111111111111111111111110 L
b11111111111111111111111111111110 Z
b11 ,
b11 N
b11 c
b1 &
b1 @
b1 -
b1 d
b11 )
b11 A
b0 6
b0 I
b0 T
b1 *
b1 K
b1010 ;
b1010 B
b1010 H
0S
b11111111111111111111111111111110 '
b11111111111111111111111111111110 b
b11111111111111111111111111111110 ?
b100000 E
b0 F
04
b110011 D
b11 <
b11 a
b10 =
b10 `
b1 >
b1 _
b10000000010 7
b10000000010 V
b100 !
b100 8
b100 Q
b100100 1
b100100 ]
b1000000001000001000000110110011 5
b1000000001000001000000110110011 G
b1000000001000001000000110110011 U
b1000000001000001000000110110011 W
b1000 X
b10000100010 /
b10000100010 \
b100000 2
b100000 Y
b100000 ^
1"
#180000
0"
#190000
b0 .
b0 P
1O
1S
0+
19
b0 )
b0 A
b0 '
b0 b
b0 ?
03
b1111111111111111111111111111100 :
b1111111111111111111111111111100 C
b1111111111111111111111111111100 L
b1111111111111111111111111111100 Z
b11111111111111111111111111111110 ,
b11111111111111111111111111111110 N
b11111111111111111111111111111110 c
b1111111111111111111111111111100 &
b1111111111111111111111111111100 @
b1111111111111111111111111111100 -
b1111111111111111111111111111100 d
b1 6
b1 I
b1 T
b0 *
b0 K
b110 ;
b110 B
b110 H
0R
b0 E
b10 F
14
b100011 D
b0 <
b0 a
b11 =
b11 `
b11111 >
b11111 _
b0 7
b0 V
b101000 1
b101000 ]
b1111111010000000100011 5
b1111111010000000100011 G
b1111111010000000100011 U
b1111111010000000100011 W
b1001 X
b100100 /
b100100 \
b100100 2
b100100 Y
b100100 ^
1"
#200000
0"
#210000
1+
bx .
bx P
0O
09
b11 :
b11 C
b11 L
b11 Z
b11 ,
b11 N
b11 c
b1 &
b1 @
b1 -
b1 d
b11 )
b11 A
b0 6
b0 I
b0 T
b1 *
b1 K
b111 ;
b111 B
b111 H
0S
b11 '
b11 b
b11 ?
b110 F
04
b110011 D
b11 <
b11 a
b10 =
b10 `
b1 >
b1 _
b10 7
b10 V
b11111111111111111111111111111110 !
b11111111111111111111111111111110 8
b11111111111111111111111111111110 Q
b101100 1
b101100 ]
b1000001110000110110011 5
b1000001110000110110011 G
b1000001110000110110011 U
b1000001110000110110011 W
b1010 X
b101010 /
b101010 \
b101000 2
b101000 Y
b101000 ^
1"
#220000
0"
#230000
b0 .
b0 P
1O
1S
0+
b0 )
b0 A
b0 '
b0 b
b0 ?
19
b1111111111111111111111111111100 :
b1111111111111111111111111111100 C
b1111111111111111111111111111100 L
b1111111111111111111111111111100 Z
b1111111111111111111111111111100 &
b1111111111111111111111111111100 @
b1111111111111111111111111111100 -
b1111111111111111111111111111100 d
b1 6
b1 I
b1 T
b0 *
b0 K
b110 ;
b110 B
b110 H
0R
b10 F
14
b100011 D
b0 <
b0 a
b11 =
b11 `
b11111 >
b11111 _
b0 7
b0 V
b110000 1
b110000 ]
b1111111010000000100011 5
b1111111010000000100011 G
b1111111010000000100011 U
b1111111010000000100011 W
b1011 X
b101100 /
b101100 \
b101100 2
b101100 Y
b101100 ^
1"
#240000
0"
#250000
1+
bx .
bx P
0O
09
b1000 :
b1000 C
b1000 L
b1000 Z
b1 &
b1 @
b1 -
b1 d
b11 )
b11 A
b0 6
b0 I
b0 T
b1 *
b1 K
b0 ;
b0 B
b0 H
0S
b1000 '
b1000 b
b1000 ?
b1 F
04
b110011 D
b11 <
b11 a
b10 =
b10 `
b1 >
b1 _
b10 7
b10 V
b11 !
b11 8
b11 Q
b110100 1
b110100 ]
b1000001001000110110011 5
b1000001001000110110011 G
b1000001001000110110011 U
b1000001001000110110011 W
b1100 X
b110010 /
b110010 \
b110000 2
b110000 Y
b110000 ^
1"
#260000
0"
#270000
b0 .
b0 P
1O
1S
0+
03
19
b0 )
b0 A
b0 '
b0 b
b0 ?
b1111111111111111111111111111100 :
b1111111111111111111111111111100 C
b1111111111111111111111111111100 L
b1111111111111111111111111111100 Z
b1000 ,
b1000 N
b1000 c
b1111111111111111111111111111100 &
b1111111111111111111111111111100 @
b1111111111111111111111111111100 -
b1111111111111111111111111111100 d
b1 6
b1 I
b1 T
b0 *
b0 K
b110 ;
b110 B
b110 H
0R
b10 F
14
b100011 D
b0 <
b0 a
b11 =
b11 `
b11111 >
b11111 _
b0 7
b0 V
b111000 1
b111000 ]
b1111111010000000100011 5
b1111111010000000100011 G
b1111111010000000100011 U
b1111111010000000100011 W
b1101 X
b110100 /
b110100 \
b110100 2
b110100 Y
b110100 ^
1"
#280000
0"
#290000
1+
bx .
bx P
0O
09
b1 :
b1 C
b1 L
b1 Z
b11 ,
b11 N
b11 c
b1 &
b1 @
b1 -
b1 d
b11 )
b11 A
b0 6
b0 I
b0 T
b1 *
b1 K
b1001 ;
b1001 B
b1001 H
0S
b1 '
b1 b
b1 ?
04
b110011 D
b11 <
b11 a
b10 =
b10 `
b1 >
b1 _
b10 7
b10 V
b1000 !
b1000 8
b1000 Q
b111100 1
b111100 ]
b1000001010000110110011 5
b1000001010000110110011 G
b1000001010000110110011 U
b1000001010000110110011 W
b1110 X
b111010 /
b111010 \
b111000 2
b111000 Y
b111000 ^
1"
#300000
0"
#310000
b0 .
b0 P
1O
1S
0+
19
b0 )
b0 A
b0 '
b0 b
b0 ?
b1111111111111111111111111111100 :
b1111111111111111111111111111100 C
b1111111111111111111111111111100 L
b1111111111111111111111111111100 Z
b1 ,
b1 N
b1 c
b1111111111111111111111111111100 &
b1111111111111111111111111111100 @
b1111111111111111111111111111100 -
b1111111111111111111111111111100 d
b1 6
b1 I
b1 T
b0 *
b0 K
b110 ;
b110 B
b110 H
0R
14
b100011 D
b0 <
b0 a
b11 =
b11 `
b11111 >
b11111 _
b0 7
b0 V
b1000000 1
b1000000 ]
b1111111010000000100011 5
b1111111010000000100011 G
b1111111010000000100011 U
b1111111010000000100011 W
b1111 X
b111100 /
b111100 \
b111100 2
b111100 Y
b111100 ^
1"
#320000
0"
#330000
1+
bx .
bx P
0(
0O
19
b11 :
b11 C
b11 L
b11 Z
bx ,
bx N
bx c
b11 &
b11 @
b11 -
b11 d
b111 )
b111 A
b0 6
b0 I
b0 T
b1 *
b1 K
b11 ;
b11 B
b11 H
0S
b11 '
b11 b
b11 ?
b111 F
04
b10011 D
b11 <
b11 a
b111 =
b111 `
b10 >
b10 _
b111 7
b111 V
b1 !
b1 8
b1 Q
b1000100 1
b1000100 ]
b11100010111000110010011 5
b11100010111000110010011 G
b11100010111000110010011 U
b11100010111000110010011 W
b10000 X
b1000111 /
b1000111 \
b1000000 2
b1000000 Y
b1000000 ^
1"
#340000
0"
#350000
b0 .
b0 P
1O
0+
1S
b0 '
b0 b
b0 ?
b1111111111111111111111111111100 :
b1111111111111111111111111111100 C
b1111111111111111111111111111100 L
b1111111111111111111111111111100 Z
b11 ,
b11 N
b11 c
b1111111111111111111111111111100 &
b1111111111111111111111111111100 @
b1111111111111111111111111111100 -
b1111111111111111111111111111100 d
b0 )
b0 A
b1 6
b1 I
b1 T
b0 *
b0 K
b110 ;
b110 B
b110 H
0R
b10 F
14
b100011 D
b0 <
b0 a
b11 =
b11 `
b11111 >
b11111 _
b0 7
b0 V
b1001000 1
b1001000 ]
b1111111010000000100011 5
b1111111010000000100011 G
b1111111010000000100011 U
b1111111010000000100011 W
b10001 X
b1000100 /
b1000100 \
b1000100 2
b1000100 Y
b1000100 ^
1"
#360000
0"
#370000
1+
bx .
bx P
0O
19
0(
b1 :
b1 C
b1 L
b1 Z
b1 ,
b1 N
b1 c
b11 &
b11 @
b11 -
b11 d
b1 )
b1 A
b0 6
b0 I
b0 T
b1 *
b1 K
b10000 ;
b10000 B
b10000 H
0S
b1 '
b1 b
b1 ?
b101 F
04
b10011 D
b11 <
b11 a
b1 =
b1 `
b10 >
b10 _
b1 7
b1 V
b11 !
b11 8
b11 Q
b1001100 1
b1001100 ]
b100010101000110010011 5
b100010101000110010011 G
b100010101000110010011 U
b100010101000110010011 W
b10010 X
b1001001 /
b1001001 \
b1001000 2
b1001000 Y
b1001000 ^
1"
#380000
0"
#390000
b0 .
b0 P
1O
0+
1S
b0 '
b0 b
b0 ?
b1111111111111111111111111111100 :
b1111111111111111111111111111100 C
b1111111111111111111111111111100 L
b1111111111111111111111111111100 Z
b1111111111111111111111111111100 &
b1111111111111111111111111111100 @
b1111111111111111111111111111100 -
b1111111111111111111111111111100 d
b0 )
b0 A
b1 6
b1 I
b1 T
b0 *
b0 K
b110 ;
b110 B
b110 H
0R
b10 F
14
b100011 D
b0 <
b0 a
b11 =
b11 `
b11111 >
b11111 _
b0 7
b0 V
b1010000 1
b1010000 ]
b1111111010000000100011 5
b1111111010000000100011 G
b1111111010000000100011 U
b1111111010000000100011 W
b10011 X
b1001100 /
b1001100 \
b1001100 2
b1001100 Y
b1001100 ^
1"
#400000
0"
#410000
1+
bx .
bx P
0O
19
1(
b0 :
b0 C
b0 L
b0 Z
b1111111111111111111111111111100 ,
b1111111111111111111111111111100 N
b1111111111111111111111111111100 c
b1 &
b1 @
b1 -
b1 d
b11111111111111111111111111111111 )
b11111111111111111111111111111111 A
b0 6
b0 I
b0 T
b1 *
b1 K
b1001 ;
b1001 B
b1001 H
0S
b0 '
b0 b
b0 ?
b1111111 E
04
b10011 D
b11 <
b11 a
b11111 =
b11111 `
b1 >
b1 _
b11111111111111111111111111111111 7
b11111111111111111111111111111111 V
b1 !
b1 8
b1 Q
b1010100 1
b1010100 ]
b11111111111100001010000110010011 5
b11111111111100001010000110010011 G
b11111111111100001010000110010011 U
b11111111111100001010000110010011 W
b10100 X
b1001111 /
b1001111 \
b1010000 2
b1010000 Y
b1010000 ^
1"
#420000
0"
#430000
b0 .
b0 P
1O
0+
1S
b0 '
b0 b
b0 ?
0(
b1111111111111111111111111111100 :
b1111111111111111111111111111100 C
b1111111111111111111111111111100 L
b1111111111111111111111111111100 Z
b0 ,
b0 N
b0 c
b1111111111111111111111111111100 &
b1111111111111111111111111111100 @
b1111111111111111111111111111100 -
b1111111111111111111111111111100 d
b0 )
b0 A
b1 6
b1 I
b1 T
b0 *
b0 K
b110 ;
b110 B
b110 H
0R
b0 E
14
b100011 D
b0 <
b0 a
b11 =
b11 `
b11111 >
b11111 _
b0 7
b0 V
b1011000 1
b1011000 ]
b1111111010000000100011 5
b1111111010000000100011 G
b1111111010000000100011 U
b1111111010000000100011 W
b10101 X
b1010100 /
b1010100 \
b1010100 2
b1010100 Y
b1010100 ^
1"
#440000
0"
#450000
bx .
bx P
0O
1R
0S
1(
b0 :
b0 C
b0 L
b0 Z
b11 ,
b11 N
b11 c
b0 &
b0 @
b0 -
b0 d
b10 =
b10 `
b0 >
b0 _
b0 !
b0 8
b0 Q
b1011100 1
b1011100 ]
b1000000010000000100011 5
b1000000010000000100011 G
b1000000010000000100011 U
b1000000010000000100011 W
b10110 X
b1011000 /
b1011000 \
b1011000 2
b1011000 Y
b1011000 ^
1"
#460000
0"
#470000
1+
19
1(
b0 :
b0 C
b0 L
b0 Z
b0 ,
b0 N
b0 c
b0 )
b0 A
b11 .
b11 P
b0 6
b0 I
b0 T
b10 *
b10 K
0R
b11 '
b11 b
b11 ?
04
b11 D
b11 <
b11 a
b0 =
b0 `
b0 7
b0 V
b1100000 1
b1100000 ]
b10000110000011 5
b10000110000011 G
b10000110000011 U
b10000110000011 W
b10111 X
b1011100 /
b1011100 \
b1011100 2
b1011100 Y
b1011100 ^
1"
#480000
0"
#490000
1O
0+
1S
b0 .
b0 P
b0 '
b0 b
b0 ?
0(
b1111111111111111111111111111100 :
b1111111111111111111111111111100 C
b1111111111111111111111111111100 L
b1111111111111111111111111111100 Z
b11 ,
b11 N
b11 c
b1111111111111111111111111111100 &
b1111111111111111111111111111100 @
b1111111111111111111111111111100 -
b1111111111111111111111111111100 d
b0 )
b0 A
b1 6
b1 I
b1 T
b0 *
b0 K
0R
14
b100011 D
b0 <
b0 a
b11 =
b11 `
b11111 >
b11111 _
b0 7
b0 V
b1100100 1
b1100100 ]
b1111111010000000100011 5
b1111111010000000100011 G
b1111111010000000100011 U
b1111111010000000100011 W
b11000 X
b1100000 /
b1100000 \
b1100000 2
b1100000 Y
b1100000 ^
1"
#500000
0"
#510000
b11xxxxxxxxxxxxxxxx .
b11xxxxxxxxxxxxxxxx P
13
0O
b11 )
b11 A
09
b11111111111111111111111111111110 :
b11111111111111111111111111111110 C
b11111111111111111111111111111110 L
b11111111111111111111111111111110 Z
b1 &
b1 @
b1 -
b1 d
b10 6
b10 I
b10 T
b1010 ;
b1010 B
b1010 H
0S
b0 F
04
b1100011 D
b10 =
b10 `
b1 >
b1 _
b11 !
b11 8
b11 Q
b1101000 1
b1101000 ]
b1000001000000001100011 5
b1000001000000001100011 G
b1000001000000001100011 U
b1000001000000001100011 W
b11001 X
b1100100 /
b1100100 \
b1100100 2
b1100100 Y
b1100100 ^
1"
#520000
0"
#530000
b1 0
b1 J
b1 [
b1100 '
b1100 b
b1100 ?
b1 F
b1100 <
b1100 a
b1100 7
b1100 V
b1101100 1
b1101100 ]
b1000001001011001100011 5
b1000001001011001100011 G
b1000001001011001100011 U
b1000001001011001100011 W
b11010 X
b1110100 /
b1110100 \
b1101000 2
b1101000 Y
b1101000 ^
1"
#540000
0"
#550000
bx0000000000000000 .
bx0000000000000000 P
b0 0
b0 J
b0 [
b1 )
b1 A
03
0(
b10 :
b10 C
b10 L
b10 Z
b1 ,
b1 N
b1 c
b11 &
b11 @
b11 -
b11 d
b0 '
b0 b
b0 ?
b100 F
b0 <
b0 a
b1 =
b1 `
b10 >
b10 _
b0 7
b0 V
b1111000 1
b1111000 ]
b100010100000001100011 5
b100010100000001100011 G
b100010100000001100011 U
b100010100000001100011 W
b11101 X
b1110100 /
b1110100 \
b1110100 2
b1110100 Y
b1110100 ^
1"
#560000
0"
#570000
b1 0
b1 J
b1 [
b1100 '
b1100 b
b1100 ?
b101 F
b1100 <
b1100 a
b1100 7
b1100 V
b1111100 1
b1111100 ]
b100010101011001100011 5
b100010101011001100011 G
b100010101011001100011 U
b100010101011001100011 W
b11110 X
b10000100 /
b10000100 \
b1111000 2
b1111000 Y
b1111000 ^
1"
#580000
0"
#590000
xO
1+
x3
bx .
bx P
bx )
bx A
x(
bx :
bx C
bx L
bx Z
bx ,
bx N
bx c
b0 &
b0 @
b0 -
b0 d
b100 6
b100 I
b100 T
b11 *
b11 K
b0 ;
b0 B
b0 H
b10001000 '
b10001000 b
b10001000 ?
b0 F
b1101111 D
b100 <
b100 a
b10000 =
b10000 `
b0 >
b0 _
b10000 7
b10000 V
b10001000 1
b10001000 ]
b1000000000000001001101111 5
b1000000000000001001101111 G
b1000000000000001001101111 U
b1000000000000001001101111 W
b100001 X
b10010100 /
b10010100 \
b10000100 2
b10000100 Y
b10000100 ^
1"
#600000
0"
#610000
0O
03
0(
b100010001 :
b100010001 C
b100010001 L
b100010001 Z
b100010001 )
b100010001 A
19
1+
b0 6
b0 I
b0 T
b0 0
b0 J
b0 [
b1 *
b1 K
b110 ;
b110 B
b110 H
b100010001 '
b100010001 b
b100010001 ?
b1000 E
b10011 D
b11 <
b11 a
b10001 =
b10001 `
b100010001 7
b100010001 V
b10011000 1
b10011000 ]
b10001000100000000000110010011 5
b10001000100000000000110010011 G
b10001000100000000000110010011 U
b10001000100000000000110010011 W
b100101 X
b110100101 /
b110100101 \
b10010100 2
b10010100 Y
b10010100 ^
1"
#620000
0"
#630000
b0 .
b0 P
1O
0+
1S
b1111111111111111111111111111100 :
b1111111111111111111111111111100 C
b1111111111111111111111111111100 L
b1111111111111111111111111111100 Z
b0 '
b0 b
b0 ?
b100010001 ,
b100010001 N
b100010001 c
b1111111111111111111111111111100 &
b1111111111111111111111111111100 @
b1111111111111111111111111111100 -
b1111111111111111111111111111100 d
b0 )
b0 A
b1 6
b1 I
b1 T
b0 *
b0 K
0R
b0 E
b10 F
14
b100011 D
b0 <
b0 a
b11 =
b11 `
b11111 >
b11111 _
b0 7
b0 V
b10011100 1
b10011100 ]
b1111111010000000100011 5
b1111111010000000100011 G
b1111111010000000100011 U
b1111111010000000100011 W
b100110 X
b10011000 /
b10011000 \
b10011000 2
b10011000 Y
b10011000 ^
1"
#640000
0"
#650000
bx .
bx P
0O
1+
b10001000 :
b10001000 C
b10001000 L
b10001000 Z
b10100000 '
b10100000 b
b10100000 ?
b0 ,
b0 N
b0 c
b10001000 &
b10001000 @
b10001000 -
b10001000 d
b0 6
b0 I
b0 T
b10 0
b10 J
b10 [
b11 *
b11 K
0S
b0 F
04
b1100111 D
b0 =
b0 `
b100 >
b100 _
b100010001 !
b100010001 8
b100010001 Q
b10100000 1
b10100000 ]
b100000000001100111 5
b100000000001100111 G
b100000000001100111 U
b100000000001100111 W
b100111 X
b10011100 /
b10011100 \
b10011100 2
b10011100 Y
b10011100 ^
1"
#660000
0"
#670000
0O
03
0(
1+
b11110001001 :
b11110001001 C
b11110001001 L
b11110001001 Z
19
bx ,
bx N
bx c
b0 &
b0 @
b0 -
b0 d
b11110001001 )
b11110001001 A
b0 0
b0 J
b0 [
b1 *
b1 K
b11110001001 '
b11110001001 b
b11110001001 ?
b111100 E
b10011 D
b11 <
b11 a
b1001 =
b1001 `
b0 >
b0 _
b11110001001 7
b11110001001 V
b10001100 1
b10001100 ]
b1111000100100000000000110010011 5
b1111000100100000000000110010011 G
b1111000100100000000000110010011 U
b1111000100100000000000110010011 W
b100010 X
b100000010001 /
b100000010001 \
b10001000 2
b10001000 Y
b10001000 ^
1"
#680000
0"
#690000
b0 .
b0 P
1O
0+
1S
b1111111111111111111111111111100 :
b1111111111111111111111111111100 C
b1111111111111111111111111111100 L
b1111111111111111111111111111100 Z
b0 '
b0 b
b0 ?
b11110001001 ,
b11110001001 N
b11110001001 c
b1111111111111111111111111111100 &
b1111111111111111111111111111100 @
b1111111111111111111111111111100 -
b1111111111111111111111111111100 d
b0 )
b0 A
b1 6
b1 I
b1 T
b0 *
b0 K
0R
b0 E
b10 F
14
b100011 D
b0 <
b0 a
b11 =
b11 `
b11111 >
b11111 _
b0 7
b0 V
b10010000 1
b10010000 ]
b1111111010000000100011 5
b1111111010000000100011 G
b1111111010000000100011 U
b1111111010000000100011 W
b100011 X
b10001100 /
b10001100 \
b10001100 2
b10001100 Y
b10001100 ^
1"
#700000
0"
#710000
bx .
bx P
x3
xO
1+
bx )
bx A
09
b10000 7
b10000 V
b10010100 '
b10010100 b
b10010100 ?
x(
bx :
bx C
bx L
bx Z
bx ,
bx N
bx c
b0 &
b0 @
b0 -
b0 d
b100 6
b100 I
b100 T
b1 0
b1 J
b1 [
b11 *
b11 K
b0 ;
b0 B
b0 H
0S
b0 F
04
b1101111 D
b10000 =
b10000 `
b0 >
b0 _
b11110001001 !
b11110001001 8
b11110001001 Q
b10010100 1
b10010100 ]
b1000000000000000001101111 5
b1000000000000000001101111 G
b1000000000000000001101111 U
b1000000000000000001101111 W
b100100 X
b10100000 /
b10100000 \
b10010000 2
b10010000 Y
b10010000 ^
1"
#720000
0"
#730000
x+
x9
bx &
bx @
bx -
bx d
b0 6
b0 I
b0 T
b0 0
b0 J
b0 [
b0 *
b0 K
bx '
bx b
bx ?
bx E
bx F
x4
bx D
bx <
bx a
bx =
bx `
bx >
bx _
bx 7
bx V
b10100100 1
b10100100 ]
bx 5
bx G
bx U
bx W
b101000 X
bx /
bx \
b10100000 2
b10100000 Y
b10100000 ^
1"
#740000
0"
#750000
b10101000 1
b10101000 ]
b101001 X
b10100100 2
b10100100 Y
b10100100 ^
1"
#760000
0"
#770000
b10101100 1
b10101100 ]
b101010 X
b10101000 2
b10101000 Y
b10101000 ^
1"
#780000
0"
#790000
b10110000 1
b10110000 ]
b101011 X
b10101100 2
b10101100 Y
b10101100 ^
1"
#800000
0"
#810000
b10110100 1
b10110100 ]
b101100 X
b10110000 2
b10110000 Y
b10110000 ^
1"
#820000
0"
#830000
b10111000 1
b10111000 ]
b101101 X
b10110100 2
b10110100 Y
b10110100 ^
1"
#840000
0"
#850000
b10111100 1
b10111100 ]
b101110 X
b10111000 2
b10111000 Y
b10111000 ^
1"
#860000
0"
#870000
b11000000 1
b11000000 ]
b101111 X
b10111100 2
b10111100 Y
b10111100 ^
1"
#880000
0"
#890000
b11000100 1
b11000100 ]
b110000 X
b11000000 2
b11000000 Y
b11000000 ^
1"
#900000
0"
